Introduction
…
as_tibble(Journals)

## # A tibble: 180 x 10
##    title publisher society price pages charpp citations foundingyear  subs field
##    <chr> <fct>     <fct>   <int> <int>  <int>     <int>        <int> <int> <fct>
##  1 Asia~ Blackwell no        123   440   3822        21         1986    14 Gene~
##  2 Sout~ So Afr e~ no         20   309   1782        22         1986    59 Econ~
##  3 Comp~ Kluwer    no        443   567   2924        22         1987    17 Spec~
##  4 MOCT~ Kluwer    no        276   520   3234        22         1991     2 Area~
##  5 Jour~ Elsevier  no        295   791   3024        24         1972    96 Inte~
##  6 Labo~ Elsevier  no        344   609   2967        24         1994    15 Labor
##  7 Envi~ Cambridg~ no         90   602   3185        24         1995    14 Deve~
##  8 Revi~ Elsevier  no        242   665   2688        27         1968   202 Spec~
##  9 Econ~ Kluwer    no        226   243   3010        28         1987    46 Area~
## 10 Metr~ Blackwell no        262   386   2501        30         1949    46 Gene~
## # ... with 170 more rows
…
