Tidyverse
…
            September 2021

Tidyverse 
 ggolot2 

Install the packages install.packages(c("ggplot2", "gapminder"), dependencies = TRUE)

Load the packages:

library(gapminder); library(ggplot2)
data(package = 'gapminder')
data("gapminder")
gapminder #panel data on life expectancy, population size, and GDP per capita for 142 countries since the 1950s.

## # A tibble: 1,704 x 6
##    country     continent  year lifeExp      pop gdpPercap
##    <fct>       <fct>     <int>   <dbl>    <int>     <dbl>
##  1 Afghanistan Asia       1952    28.8  8425333      779.
##  2 Afghanistan Asia       1957    30.3  9240934      821.
##  3 Afghanistan Asia       1962    32.0 10267083      853.
##  4 Afghanistan Asia       1967    34.0 11537966      836.
##  5 Afghanistan Asia       1972    36.1 13079460      740.
##  6 Afghanistan Asia       1977    38.4 14880372      786.
##  7 Afghanistan Asia       1982    39.9 12881816      978.
##  8 Afghanistan Asia       1987    40.8 13867957      852.
##  9 Afghanistan Asia       1992    41.7 16317921      649.
## 10 Afghanistan Asia       1997    41.8 22227415      635.
## # ... with 1,694 more rows
…
Packages and Data

dplyr package

filter(), arrange(), select(), mutate(), summarise() functions/verbs.

library(tidyverse)

gapminder data set

library(gapminder)
data(gapminder)
gapminder

## # A tibble: 1,704 x 6
##    country     continent  year lifeExp      pop gdpPercap
##    <fct>       <fct>     <int>   <dbl>    <int>     <dbl>
##  1 Afghanistan Asia       1952    28.8  8425333      779.
##  2 Afghanistan Asia       1957    30.3  9240934      821.
##  3 Afghanistan Asia       1962    32.0 10267083      853.
##  4 Afghanistan Asia       1967    34.0 11537966      836.
##  5 Afghanistan Asia       1972    36.1 13079460      740.
##  6 Afghanistan Asia       1977    38.4 14880372      786.
##  7 Afghanistan Asia       1982    39.9 12881816      978.
##  8 Afghanistan Asia       1987    40.8 13867957      852.
##  9 Afghanistan Asia       1992    41.7 16317921      649.
## 10 Afghanistan Asia       1997    41.8 22227415      635.
## # ... with 1,694 more rows

Filter rows with filter()

Filter all the countries in Asia for 1952.

Note that == is used for comparison and = for assignment.

filter(gapminder, continent == "Asia", year == 1952)

## # A tibble: 33 x 6
##    country          continent  year lifeExp       pop gdpPercap
##    <fct>            <fct>     <int>   <dbl>     <int>     <dbl>
##  1 Afghanistan      Asia       1952    28.8   8425333      779.
##  2 Bahrain          Asia       1952    50.9    120447     9867.
##  3 Bangladesh       Asia       1952    37.5  46886859      684.
##  4 Cambodia         Asia       1952    39.4   4693836      368.
##  5 China            Asia       1952    44   556263527      400.
##  6 Hong Kong, China Asia       1952    61.0   2125900     3054.
##  7 India            Asia       1952    37.4 372000000      547.
##  8 Indonesia        Asia       1952    37.5  82052000      750.
##  9 Iran             Asia       1952    44.9  17272000     3035.
## 10 Iraq             Asia       1952    45.3   5441766     4130.
## # ... with 23 more rows

Find all the countries in Asia or Africa.

## filter(gapminder, continent == "Asia" | continent == "Africa")
# or
filter(gapminder, continent %in% c("Asia", "Africa"))

## # A tibble: 1,020 x 6
##    country     continent  year lifeExp      pop gdpPercap
##    <fct>       <fct>     <int>   <dbl>    <int>     <dbl>
##  1 Afghanistan Asia       1952    28.8  8425333      779.
##  2 Afghanistan Asia       1957    30.3  9240934      821.
##  3 Afghanistan Asia       1962    32.0 10267083      853.
##  4 Afghanistan Asia       1967    34.0 11537966      836.
##  5 Afghanistan Asia       1972    36.1 13079460      740.
##  6 Afghanistan Asia       1977    38.4 14880372      786.
##  7 Afghanistan Asia       1982    39.9 12881816      978.
##  8 Afghanistan Asia       1987    40.8 13867957      852.
##  9 Afghanistan Asia       1992    41.7 16317921      649.
## 10 Afghanistan Asia       1997    41.8 22227415      635.
## # ... with 1,010 more rows

%in% is used to see whether an object is contained within (i.e.matches one of) a list of items.

Find all the countries with per capita GDP between \(\$500\) and \(\$1000\).

filter(gapminder, gdpPercap >= 500 & gdpPercap <= 1000 )

## # A tibble: 288 x 6
##    country     continent  year lifeExp      pop gdpPercap
##    <fct>       <fct>     <int>   <dbl>    <int>     <dbl>
##  1 Afghanistan Asia       1952    28.8  8425333      779.
##  2 Afghanistan Asia       1957    30.3  9240934      821.
##  3 Afghanistan Asia       1962    32.0 10267083      853.
##  4 Afghanistan Asia       1967    34.0 11537966      836.
##  5 Afghanistan Asia       1972    36.1 13079460      740.
##  6 Afghanistan Asia       1977    38.4 14880372      786.
##  7 Afghanistan Asia       1982    39.9 12881816      978.
##  8 Afghanistan Asia       1987    40.8 13867957      852.
##  9 Afghanistan Asia       1992    41.7 16317921      649.
## 10 Afghanistan Asia       1997    41.8 22227415      635.
## # ... with 278 more rows

Arrange rows with arrange()

Sorts a variable in ascending or descending order.

arrange(gapminder, lifeExp)

## # A tibble: 1,704 x 6
##    country      continent  year lifeExp     pop gdpPercap
##    <fct>        <fct>     <int>   <dbl>   <int>     <dbl>
##  1 Rwanda       Africa     1992    23.6 7290203      737.
##  2 Afghanistan  Asia       1952    28.8 8425333      779.
##  3 Gambia       Africa     1952    30    284320      485.
##  4 Angola       Africa     1952    30.0 4232095     3521.
##  5 Sierra Leone Africa     1952    30.3 2143249      880.
##  6 Afghanistan  Asia       1957    30.3 9240934      821.
##  7 Cambodia     Asia       1977    31.2 6978607      525.
##  8 Mozambique   Africa     1952    31.3 6446316      469.
##  9 Sierra Leone Africa     1957    31.6 2295678     1004.
## 10 Burkina Faso Africa     1952    32.0 4469979      543.
## # ... with 1,694 more rows

arrange(gapminder, desc(lifeExp))

## # A tibble: 1,704 x 6
##    country          continent  year lifeExp       pop gdpPercap
##    <fct>            <fct>     <int>   <dbl>     <int>     <dbl>
##  1 Japan            Asia       2007    82.6 127467972    31656.
##  2 Hong Kong, China Asia       2007    82.2   6980412    39725.
##  3 Japan            Asia       2002    82   127065841    28605.
##  4 Iceland          Europe     2007    81.8    301931    36181.
##  5 Switzerland      Europe     2007    81.7   7554661    37506.
##  6 Hong Kong, China Asia       2002    81.5   6762476    30209.
##  7 Australia        Oceania    2007    81.2  20434176    34435.
##  8 Spain            Europe     2007    80.9  40448191    28821.
##  9 Sweden           Europe     2007    80.9   9031088    33860.
## 10 Israel           Asia       2007    80.7   6426679    25523.
## # ... with 1,694 more rows

Select columns with select()

Select columns by name

select(gapminder, year, pop, gdpPercap)

## # A tibble: 1,704 x 3
##     year      pop gdpPercap
##    <int>    <int>     <dbl>
##  1  1952  8425333      779.
##  2  1957  9240934      821.
##  3  1962 10267083      853.
##  4  1967 11537966      836.
##  5  1972 13079460      740.
##  6  1977 14880372      786.
##  7  1982 12881816      978.
##  8  1987 13867957      852.
##  9  1992 16317921      649.
## 10  1997 22227415      635.
## # ... with 1,694 more rows
select(gapminder, year:gdpPercap)

select(gapminder, -(year:gdpPercap))

select(gapminder, starts_with("c"))

select(gapminder, ends_with("p"))

select(gapminder, contains("life"))

rename() is a variant of select() that keeps all the variables that arent explicitly mentioned.

rename(gapminder, perCapInc = gdpPercap)

## # A tibble: 1,704 x 6
##    country     continent  year lifeExp      pop perCapInc
##    <fct>       <fct>     <int>   <dbl>    <int>     <dbl>
##  1 Afghanistan Asia       1952    28.8  8425333      779.
##  2 Afghanistan Asia       1957    30.3  9240934      821.
##  3 Afghanistan Asia       1962    32.0 10267083      853.
##  4 Afghanistan Asia       1967    34.0 11537966      836.
##  5 Afghanistan Asia       1972    36.1 13079460      740.
##  6 Afghanistan Asia       1977    38.4 14880372      786.
##  7 Afghanistan Asia       1982    39.9 12881816      978.
##  8 Afghanistan Asia       1987    40.8 13867957      852.
##  9 Afghanistan Asia       1992    41.7 16317921      649.
## 10 Afghanistan Asia       1997    41.8 22227415      635.
## # ... with 1,694 more rows

Add new variables with mutate()

mutate(gapminder, gdp = gdpPercap*pop)

## # A tibble: 1,704 x 7
##    country     continent  year lifeExp      pop gdpPercap          gdp
##    <fct>       <fct>     <int>   <dbl>    <int>     <dbl>        <dbl>
##  1 Afghanistan Asia       1952    28.8  8425333      779.  6567086330.
##  2 Afghanistan Asia       1957    30.3  9240934      821.  7585448670.
##  3 Afghanistan Asia       1962    32.0 10267083      853.  8758855797.
##  4 Afghanistan Asia       1967    34.0 11537966      836.  9648014150.
##  5 Afghanistan Asia       1972    36.1 13079460      740.  9678553274.
##  6 Afghanistan Asia       1977    38.4 14880372      786. 11697659231.
##  7 Afghanistan Asia       1982    39.9 12881816      978. 12598563401.
##  8 Afghanistan Asia       1987    40.8 13867957      852. 11820990309.
##  9 Afghanistan Asia       1992    41.7 16317921      649. 10595901589.
## 10 Afghanistan Asia       1997    41.8 22227415      635. 14121995875.
## # ... with 1,694 more rows

Keep only required columns/variables with transmute().

transmute(gapminder, gdp = gdpPercap*pop)

## # A tibble: 1,704 x 1
##             gdp
##           <dbl>
##  1  6567086330.
##  2  7585448670.
##  3  8758855797.
##  4  9648014150.
##  5  9678553274.
##  6 11697659231.
##  7 12598563401.
##  8 11820990309.
##  9 10595901589.
## 10 14121995875.
## # ... with 1,694 more rows
…
